International External Debt Network – Tidy Intelligence
…
nodes <- create_nodes(external_debt_sub)
nodes

# A tibble: 33 × 7
   id                                    type  color   value title label    size
   <chr>                                 <chr> <chr>   <dbl> <chr> <chr>   <dbl>
 1 Cameroon                              debt… #319… 1.18e10 Came… "Cam… 2.28e-1
 2 Nigeria                               debt… #319… 4.00e10 Nige… "Nig… 7.72e-1
 3 African Dev. Bank                     cred… #C46… 4.18e 9 Afri… "Afr… 8.07e-2
 4 African Export-Import Bank            cred… #C46… 7.60e 7 Afri… "Afr… 1.47e-3
 5 Arab Bank for Economic Dev. in Afric… cred… #C46… 7.23e 7 Arab… "Ara… 1.39e-3
 6 Austria                               cred… #319… 8.78e 6 Aust… "Aus… 1.69e-4
 7 Belgium                               cred… #319… 5.69e 7 Belg… "Bel… 1.10e-3
 8 Bondholders                           cred… #4AC… 1.73e10 Bond… "Bon… 3.33e-1
 9 Central Bank of West African States … cred… #C46… 2.28e 7 Cent… "Cen… 4.40e-4
10 China                                 cred… #319… 8.08e 9 Chin… "Chi… 1.56e-1
# ℹ 23 more rows
…
create_edges <- function(external_debt_sub) {
  edges <- external_debt_sub |> 
    select(from, to) |> 
    mutate(
      shadow = TRUE, 
      color = "grey",
      smooth = TRUE
    )
  edges
}

edges <- create_edges(external_debt_sub)
edges

# A tibble: 45 × 5
   from     to                               shadow color smooth
   <chr>    <chr>                            <lgl>  <chr> <lgl> 
 1 Cameroon World Bank-IDA                   TRUE   grey  TRUE  
 2 Cameroon World Bank-IBRD                  TRUE   grey  TRUE  
 3 Cameroon United States                    TRUE   grey  TRUE  
 4 Cameroon United Kingdom                   TRUE   grey  TRUE  
 5 Cameroon United Arab Emirates             TRUE   grey  TRUE  
 6 Cameroon Turkiye                          TRUE   grey  TRUE  
 7 Cameroon Switzerland                      TRUE   grey  TRUE  
 8 Cameroon Spain                            TRUE   grey  TRUE  
 9 Cameroon Saudi Arabia                     TRUE   grey  TRUE  
10 Cameroon OPEC Fund for International Dev. TRUE   grey  TRUE  
# ℹ 35 more rows
…
