Tidy Data Manipulation: dplyr vs pandas
…
Work with rows

Filter rows

Filtering rows with dplyr is based on NSE and the dplyr::filter() function. To replicate the same results with pandas, you can use pandas.query() method which accepts a string with the filter conditions as input.

R
Python

penguins |> 
  filter(species == "Adelie" & 
           island %in% c("Biscoe", "Dream"))

# A tibble: 100 × 8
   species island bill_length_mm bill_depth_mm flipper_length_mm body_mass_g
   <fct>   <fct>           <dbl>         <dbl>             <int>       <int>
 1 Adelie  Biscoe           37.8          18.3               174        3400
 2 Adelie  Biscoe           37.7          18.7               180        3600
 3 Adelie  Biscoe           35.9          19.2               189        3800
 4 Adelie  Biscoe           38.2          18.1               185        3950
 5 Adelie  Biscoe           38.8          17.2               180        3800
 6 Adelie  Biscoe           35.3          18.9               187        3800
 7 Adelie  Biscoe           40.6          18.6               183        3550
 8 Adelie  Biscoe           40.5          17.9               187        3200
 9 Adelie  Biscoe           37.9          18.6               172        3150
10 Adelie  Biscoe           40.5          18.9               180        3950
# ℹ 90 more rows
# ℹ 2 more variables: sex <fct>, year <int>
…
[11 rows x 8 columns]

Arrange rows

To orders the rows of a data frame by the values of selected columns, we have dplyr::arrange() and pandas.sort_values(). Note that both approaches arrange rows in an an ascending order and puts missing values last as defaults.

R
Python

penguins |> 
  arrange(island, -bill_length_mm)

# A tibble: 344 × 8
   species island bill_length_mm bill_depth_mm flipper_length_mm body_mass_g
   <fct>   <fct>           <dbl>         <dbl>             <int>       <int>
 1 Gentoo  Biscoe           59.6          17                 230        6050
 2 Gentoo  Biscoe           55.9          17                 228        5600
 3 Gentoo  Biscoe           55.1          16                 230        5850
 4 Gentoo  Biscoe           54.3          15.7               231        5650
 5 Gentoo  Biscoe           53.4          15.8               219        5500
 6 Gentoo  Biscoe           52.5          15.6               221        5450
 7 Gentoo  Biscoe           52.2          17.1               228        5400
 8 Gentoo  Biscoe           52.1          17                 230        5550
 9 Gentoo  Biscoe           51.5          16.3               230        5500
10 Gentoo  Biscoe           51.3          14.2               218        5300
# ℹ 334 more rows
# ℹ 2 more variables: sex <fct>, year <int>
…
[344 rows x 8 columns]

Work with columns

Select columns

Selecting a subset of columns works very similarly withdplyr::select() and pandas.get(). The former accepts column names using NSE (or vectors of charaters), while the latter requires a vector of strings with column names as inputs.

R
Python

penguins |> 
  select(bill_length_mm, sex)

# A tibble: 344 × 2
   bill_length_mm sex   
            <dbl> <fct> 
 1           39.1 male  
 2           39.5 female
 3           40.3 female
 4           NA   <NA>  
 5           36.7 female
 6           39.3 male  
 7           38.9 female
 8           39.2 male  
 9           34.1 <NA>  
10           42   <NA>  
# ℹ 334 more rows
…
[344 rows x 2 columns]

Rename columns

Renaming columns also works very similarly with the major difference that pandas.rename() takes a dictionary with mappings of old to new names as input, while dplyr::rename() takes variable names via the usual NSE.

R
Python

penguins |> 
  rename(bill_length = bill_length_mm,
         bill_depth = bill_depth_mm)

# A tibble: 344 × 8
   species island    bill_length bill_depth flipper_length_mm body_mass_g sex   
   <fct>   <fct>           <dbl>      <dbl>             <int>       <int> <fct> 
 1 Adelie  Torgersen        39.1       18.7               181        3750 male  
 2 Adelie  Torgersen        39.5       17.4               186        3800 female
 3 Adelie  Torgersen        40.3       18                 195        3250 female
 4 Adelie  Torgersen        NA         NA                  NA          NA <NA>  
 5 Adelie  Torgersen        36.7       19.3               193        3450 female
 6 Adelie  Torgersen        39.3       20.6               190        3650 male  
 7 Adelie  Torgersen        38.9       17.8               181        3625 female
 8 Adelie  Torgersen        39.2       19.6               195        4675 male  
 9 Adelie  Torgersen        34.1       18.1               193        3475 <NA>  
10 Adelie  Torgersen        42         20.2               190        4250 <NA>  
# ℹ 334 more rows
# ℹ 1 more variable: year <int>
…
Mutate columns

Transforming existing columns or creating new ones is an essential part of data analysis. dplyr::mutate() and pandas.assign() are the work horses for these tasks. While dplyr starts with column names before the expressions that transform columns, pandas uses the lambda function to assign expressions to new columns. Note that you have to split up variable assignments if you want to refer to a newly created variable in pandas, while you can refer to the new variables in the same mutate block in dplyr.

R
Python

penguins |> 
  mutate(ones = 1,
         bill_length = bill_length_mm / 10,
         bill_length_squared = bill_length^2) |> 
  select(ones, bill_length_mm, bill_length, bill_length_squared)

# A tibble: 344 × 4
    ones bill_length_mm bill_length bill_length_squared
   <dbl>          <dbl>       <dbl>               <dbl>
 1     1           39.1        3.91                15.3
 2     1           39.5        3.95                15.6
 3     1           40.3        4.03                16.2
 4     1           NA         NA                   NA  
 5     1           36.7        3.67                13.5
 6     1           39.3        3.93                15.4
 7     1           38.9        3.89                15.1
 8     1           39.2        3.92                15.4
 9     1           34.1        3.41                11.6
10     1           42          4.2                 17.6
# ℹ 334 more rows
…
[344 rows x 4 columns]

Relocate columns

dplyr::relocate() provides options to change the positions of columns in a data frame, using the same syntax as dplyr::select(). In addition, there are the options .after and .before to provide users with additional shortcuts.

The recommended way to relocate columns in pandas is to use the pandas.get() method, but there are no options as in dplyr::relocate(). In fact, the safest way to consistently get the correct order of columns is to explicitly specify them.

R
Python

penguins |> 
  relocate(c(species, bill_length_mm), .before = year)

# A tibble: 344 × 8
   island    bill_depth_mm flipper_length_mm body_mass_g sex    species
   <fct>             <dbl>             <int>       <int> <fct>  <fct>  
 1 Torgersen          18.7               181        3750 male   Adelie 
 2 Torgersen          17.4               186        3800 female Adelie 
 3 Torgersen          18                 195        3250 female Adelie 
 4 Torgersen          NA                  NA          NA <NA>   Adelie 
 5 Torgersen          19.3               193        3450 female Adelie 
 6 Torgersen          20.6               190        3650 male   Adelie 
 7 Torgersen          17.8               181        3625 female Adelie 
 8 Torgersen          19.6               195        4675 male   Adelie 
 9 Torgersen          18.1               193        3475 <NA>   Adelie 
10 Torgersen          20.2               190        4250 <NA>   Adelie 
# ℹ 334 more rows
# ℹ 2 more variables: bill_length_mm <dbl>, year <int>
…
