Tidy Data: A Recipe for Efficient Data Analysis
…
symbols <- symbols[[1]] |> 
  select(symbol = Symbol, 
         company = Security, 
         sector = `GICS Sector`, 
         industry = `GICS Sub-Industry`) |> 
  mutate(symbol = str_replace(symbol, "[.]", "-")) |> 
  arrange(symbol)

The following chunk prints what we got from Wikipedia. We will use the sector information in the last section of this post where we take a quick look at the scraped data.

symbols

# A tibble: 503 × 4
   symbol company                 sector                 industry               
   <chr>  <chr>                   <chr>                  <chr>                  
 1 A      Agilent Technologies    Health Care            Health Care Equipment  
 2 AAL    American Airlines Group Industrials            Passenger Airlines     
 3 AAPL   Apple Inc.              Information Technology Technology Hardware, S…
 4 ABBV   AbbVie                  Health Care            Pharmaceuticals        
 5 ABNB   Airbnb                  Consumer Discretionary Hotels, Resorts & Crui…
 6 ABT    Abbott                  Health Care            Health Care Equipment  
 7 ACGL   Arch Capital Group      Financials             Reinsurance            
 8 ACN    Accenture               Information Technology IT Consulting & Other …
 9 ADBE   Adobe Inc.              Information Technology Application Software   
10 ADI    Analog Devices          Information Technology Semiconductors         
# ℹ 493 more rows
…
for (j in 1:nrow(symbols)) {
  page <- scrape_sustainability_page(symbols$symbol[j], agent)
  esg_data <- extract_esg_data(symbols$symbol[j], page)
  write_rds(esg_data, paste0("data/esg_data_", symbols$symbol[j], ".rds"))
}

esg_data <- list.files("data/", full.names = TRUE) |> 
  map_df(read_rds)

The code chunk from above takes a couple of hours in the current specification because of the increasing waiting times. The whole table then looks like this and also includes our initial example Apple:

esg_data 

# A tibble: 503 × 8
   symbol scrape_date         total_esg_score environment_risk_score
   <chr>  <dttm>                        <dbl>                  <dbl>
 1 A      2023-11-27 00:29:33              15                    0.3
 2 AAL    2023-11-27 00:29:33              29                   11.5
 3 AAPL   2023-11-27 00:29:35              17                    0.6
 4 ABBV   2023-11-27 00:29:37              28                    1.1
 5 ABNB   2023-11-27 00:29:38              NA                   NA  
 6 ABT    2023-11-27 00:29:39              25                    3  
 7 ACGL   2023-11-27 00:29:39              21                    1.5
 8 ACN    2023-11-27 00:29:40              10                    0.3
 9 ADBE   2023-11-27 00:29:41              12                    1.9
10 ADI    2023-11-27 00:29:41              24                   10.1
# ℹ 493 more rows
# ℹ 4 more variables: social_risk_score <dbl>, governance_risk_score <dbl>,
#   controversy_level <dbl>, last_update_date <chr>
…
