Tidy Data Manipulation: dplyr vs polars – Tidy Intelligence
…
Work with rows

Filter rows

Filtering rows works very similarly for both packages, they even have the same function names: dplyr::filter() and polars.filter(). To select columns in polars, you need the polars.col() selector.

dplyr
polars

penguins |> 
  filter(species == "Adelie" & 
           island %in% c("Biscoe", "Dream"))

# A tibble: 100 × 8
   species island bill_length_mm bill_depth_mm flipper_length_mm body_mass_g
   <fct>   <fct>           <dbl>         <dbl>             <int>       <int>
 1 Adelie  Biscoe           37.8          18.3               174        3400
 2 Adelie  Biscoe           37.7          18.7               180        3600
 3 Adelie  Biscoe           35.9          19.2               189        3800
 4 Adelie  Biscoe           38.2          18.1               185        3950
 5 Adelie  Biscoe           38.8          17.2               180        3800
 6 Adelie  Biscoe           35.3          18.9               187        3800
 7 Adelie  Biscoe           40.6          18.6               183        3550
 8 Adelie  Biscoe           40.5          17.9               187        3200
 9 Adelie  Biscoe           37.9          18.6               172        3150
10 Adelie  Biscoe           40.5          18.9               180        3950
# ℹ 90 more rows
# ℹ 2 more variables: sex <fct>, year <int>
…
Arrange rows

To orders the rows of a data frame by the values of selected columns, we have dplyr::arrange() and polars.sort(). Note that dplyr::arrange() arranges rows in an an ascending order and puts NA values last. polars.sort(), on the other hand, arranges rows in an ascending order and starts with null as default. Note that there are options to control these defaults.

dplyr
polars

penguins |> 
  arrange(island, desc(bill_length_mm))

# A tibble: 344 × 8
   species island bill_length_mm bill_depth_mm flipper_length_mm body_mass_g
   <fct>   <fct>           <dbl>         <dbl>             <int>       <int>
 1 Gentoo  Biscoe           59.6          17                 230        6050
 2 Gentoo  Biscoe           55.9          17                 228        5600
 3 Gentoo  Biscoe           55.1          16                 230        5850
 4 Gentoo  Biscoe           54.3          15.7               231        5650
 5 Gentoo  Biscoe           53.4          15.8               219        5500
 6 Gentoo  Biscoe           52.5          15.6               221        5450
 7 Gentoo  Biscoe           52.2          17.1               228        5400
 8 Gentoo  Biscoe           52.1          17                 230        5550
 9 Gentoo  Biscoe           51.5          16.3               230        5500
10 Gentoo  Biscoe           51.3          14.2               218        5300
# ℹ 334 more rows
# ℹ 2 more variables: sex <fct>, year <int>
…
Work with columns

Select columns

Selecting a subset of columns works essentially the same for both and dplyr::select() and polars.select() even have the same name. Note that you don’t have to use polars.col() but can just pass strings in the polars.select() method.

dplyr
polars

penguins |> 
  select(bill_length_mm, sex)

# A tibble: 344 × 2
   bill_length_mm sex   
            <dbl> <fct> 
 1           39.1 male  
 2           39.5 female
 3           40.3 female
 4           NA   <NA>  
 5           36.7 female
 6           39.3 male  
 7           38.9 female
 8           39.2 male  
 9           34.1 <NA>  
10           42   <NA>  
# ℹ 334 more rows
…
50.2
"female"

Rename columns

Renaming columns also works very similarly with the major difference that polars.rename() takes a dictionary with mappings of old to new names as input, while dplyr::rename() takes variable names via the usual NSE.

dplyr
polars

penguins |> 
  rename(bill_length = bill_length_mm,
         bill_depth = bill_depth_mm)

# A tibble: 344 × 8
   species island    bill_length bill_depth flipper_length_mm body_mass_g sex   
   <fct>   <fct>           <dbl>      <dbl>             <int>       <int> <fct> 
 1 Adelie  Torgersen        39.1       18.7               181        3750 male  
 2 Adelie  Torgersen        39.5       17.4               186        3800 female
 3 Adelie  Torgersen        40.3       18                 195        3250 female
 4 Adelie  Torgersen        NA         NA                  NA          NA <NA>  
 5 Adelie  Torgersen        36.7       19.3               193        3450 female
 6 Adelie  Torgersen        39.3       20.6               190        3650 male  
 7 Adelie  Torgersen        38.9       17.8               181        3625 female
 8 Adelie  Torgersen        39.2       19.6               195        4675 male  
 9 Adelie  Torgersen        34.1       18.1               193        3475 <NA>  
10 Adelie  Torgersen        42         20.2               190        4250 <NA>  
# ℹ 334 more rows
# ℹ 1 more variable: year <int>
…
Mutate columns

Transforming existing columns or creating new ones is an essential part of data analysis. dplyr::mutate() and polars.with_columns() are the work horses for these tasks. Both approaches have a very similar syntax. Note that you have to split up variable assignments if you want to refer to a newly created variable in polars, while you can refer to the new variables in the same mutate block in dplyr.

dplyr
polars

penguins |> 
  mutate(ones = 1,
         bill_length = bill_length_mm / 10,
         bill_length_squared = bill_length^2) |> 
  select(ones, bill_length_mm, bill_length, bill_length_squared)

# A tibble: 344 × 4
    ones bill_length_mm bill_length bill_length_squared
   <dbl>          <dbl>       <dbl>               <dbl>
 1     1           39.1        3.91                15.3
 2     1           39.5        3.95                15.6
 3     1           40.3        4.03                16.2
 4     1           NA         NA                   NA  
 5     1           36.7        3.67                13.5
 6     1           39.3        3.93                15.4
 7     1           38.9        3.89                15.1
 8     1           39.2        3.92                15.4
 9     1           34.1        3.41                11.6
10     1           42          4.2                 17.6
# ℹ 334 more rows
…
Relocate columns

dplyr::relocate() provides options to change the positions of columns in a data frame, using the same syntax as dplyr::select(). In addition, there are the options .after and .before to provide users with additional shortcuts.

The recommended way to relocate columns in polars is to use the polars.select() method, but there are no options as in dplyr::relocate(). In fact, the safest way to consistently get the correct order of columns is to explicitly specify them.

dplyr
polars

penguins |> 
  relocate(c(species, bill_length_mm), .before = sex)

# A tibble: 344 × 8
   island    bill_depth_mm flipper_length_mm body_mass_g species bill_length_mm
   <fct>             <dbl>             <int>       <int> <fct>            <dbl>
 1 Torgersen          18.7               181        3750 Adelie            39.1
 2 Torgersen          17.4               186        3800 Adelie            39.5
 3 Torgersen          18                 195        3250 Adelie            40.3
 4 Torgersen          NA                  NA          NA Adelie            NA  
 5 Torgersen          19.3               193        3450 Adelie            36.7
 6 Torgersen          20.6               190        3650 Adelie            39.3
 7 Torgersen          17.8               181        3625 Adelie            38.9
 8 Torgersen          19.6               195        4675 Adelie            39.2
 9 Torgersen          18.1               193        3475 Adelie            34.1
10 Torgersen          20.2               190        4250 Adelie            42  
# ℹ 334 more rows
# ℹ 2 more variables: sex <fct>, year <int>
…
